Calcula la tabla de vida para edades simples o completa — DemBas_tablavida_completa • DemographyBasic
…
3.34149,3.64844,3.99052,4.35799,4.76231,
5.19386,5.68611,6.20842,6.79514,7.42672,
8.12774,8.89053,9.74129,10.68500,11.73947,
12.91226,14.22468,15.71228,17.35403,19.16595,
21.20612,23.43628,25.96366,28.83038,32.10259,
35.83456,40.09691,44.96477,50.47392,56.71130,
63.73696,71.61161,80.38833,90.15169,100.87032,
112.56462,125.25733,138.92967,153.57492,169.22923,
185.87183,203.41806,222.05303,241.69867,262.24030,
283.83279,306.41026,329.80973,354.16667,379.65616,
406.15058,434.57189,462.12121,491.86992,832.50000)
mx = Mx1000/1000
tb01 = DemBas_tablavida_completa(mx)
tb01
#> # A tibble: 105 × 10
#>    Edad  Mx1000      qx    px     lx    dx    Lx      Tx    ex    Sx
#>    <chr>  <dbl>   <dbl> <dbl>  <dbl> <dbl> <dbl>   <dbl> <dbl> <dbl>
#>  1 0      9.12  0.00908 0.991 100000   908 99364 7826402  78.3 0.997
#>  2 1      0.848 0.00085 0.999  99092    84 99042 7727038  78.0 0.999
#>  3 2      0.495 0.00049 1.00   99008    49 98983 7627996  77.0 1.00 
#>  4 3      0.334 0.00033 1.00   98959    33 98942 7529013  76.1 1.00 
#>  5 4      0.273 0.00027 1.00   98926    27 98912 7430070  75.1 1.00 
#>  6 5      0.233 0.00023 1.00   98899    23 98887 7331158  74.1 1.00 
#>  7 6      0.202 0.0002  1.00   98876    20 98866 7232270  73.1 1.00 
#>  8 7      0.192 0.00019 1.00   98856    19 98846 7133404  72.2 1.00 
#>  9 8      0.192 0.00019 1.00   98837    19 98827 7034558  71.2 1.00 
#> 10 9      0.182 0.00018 1.00   98818    18 98809 6935730  70.2 1.00 
#> # ℹ 95 more rows
…
