Introduction to DemographyBasic • DemographyBasic
…
This is a basic example which shows you how to solve a common
problem:

library(DemographyBasic)
(mx0 = 1733/441881) # TMI = D^t_0/N^t 
#> [1] 0.00392187
# Defunciones de menores de un año durante 2003: 1733
# Nacimientos en España en 2003: 441881
mx = c(mx0,0.00027, 0.00013, 0.00016, 0.00043, 0.00057, 0.00059, 0.00081,
     0.00115, 0.00174, 0.00258, 0.00376, 0.00569, 0.00818, 0.01346,
     0.02206, 0.03844, 0.06981, 0.12872, 0.21674, 0.31705, 0.48258)
tv = DemBas_tablavida_abreviada(mx)
tv
#> # A tibble: 22 × 11
#>    Edad      n nMx1000     nqx   npx     lx   ndx    nLx      Tx    ex    Sx
#>    <chr> <dbl>   <dbl>   <dbl> <dbl>  <dbl> <dbl>  <dbl>   <dbl> <dbl> <dbl>
#>  1 0         1    3.92 0.00391 0.996 100000   391  99726 7959151  79.6 0.996
#>  2 1         4    0.27 0.00108 0.999  99609   108 398219 7859425  78.9 0.999
#>  3 5         5    0.13 0.00065 0.999  99501    65 497344 7461205  75.0 0.999
#>  4 10        5    0.16 0.0008  0.999  99436    80 496983 6963862  70.0 0.999
#>  5 15        5    0.43 0.00215 0.998  99357   213 496251 6466879  65.1 0.998
#>  6 20        5    0.57 0.00285 0.997  99144   282 495012 5970628  60.2 0.997
#>  7 25        5    0.59 0.00295 0.997  98861   291 493579 5475615  55.4 0.997
#>  8 30        5    0.81 0.00404 0.996  98570   398 491855 4982037  50.5 0.995
#>  9 35        5    1.15 0.00573 0.994  98172   563 489451 4490182  45.7 0.993
#> 10 40        5    1.74 0.00866 0.991  97609   846 485931 4000731  41.0 0.989
#> # ℹ 12 more rows
…
748

748

1551

1551

2.07

NA

tvc = DemBas_tablavida_abreviada_calculadora(mx)
tvc
#> # A tibble: 22 × 11
#>    Edad      n nMx1000     nqx   npx     lx   ndx    nLx      Tx    ex    Sx
#>    <chr> <dbl>   <dbl>   <dbl> <dbl>  <dbl> <dbl>  <dbl>   <dbl> <dbl> <dbl>
#>  1 0         1    3.92 0.00391 0.996 100000   391  99726 7959163  79.6 0.996
#>  2 1         4    0.27 0.00108 0.999  99609   108 398220 7859437  78.9 0.999
#>  3 5         5    0.13 0.00065 0.999  99501    65 497345 7461217  75.0 0.999
#>  4 10        5    0.16 0.0008  0.999  99437    80 496985 6963872  70.0 0.999
#>  5 15        5    0.43 0.00215 0.998  99357   214 496253 6466887  65.1 0.998
#>  6 20        5    0.57 0.00285 0.997  99144   283 495013 5970634  60.2 0.997
#>  7 25        5    0.59 0.00295 0.997  98861   292 493575 5475621  55.4 0.997
#>  8 30        5    0.81 0.00404 0.996  98569   398 491850 4982046  50.5 0.995
#>  9 35        5    1.15 0.00573 0.994  98171   563 489450 4490196  45.7 0.993
#> 10 40        5    1.74 0.00866 0.991  97609   845 485930 4000746  41.0 0.989
#> # ℹ 12 more rows
…
3.34149,3.64844,3.99052,4.35799,4.76231,
5.19386,5.68611,6.20842,6.79514,7.42672,
8.12774,8.89053,9.74129,10.68500,11.73947,
12.91226,14.22468,15.71228,17.35403,19.16595,
21.20612,23.43628,25.96366,28.83038,32.10259,
35.83456,40.09691,44.96477,50.47392,56.71130,
63.73696,71.61161,80.38833,90.15169,100.87032,
112.56462,125.25733,138.92967,153.57492,169.22923,
185.87183,203.41806,222.05303,241.69867,262.24030,
283.83279,306.41026,329.80973,354.16667,379.65616,
406.15058,434.57189,462.12121,491.86992,832.50000)
mx = Mx1000/1000
tb01 = DemBas_tablavida_completa(mx)
tb01
#> # A tibble: 105 × 10
#>    Edad  Mx1000      qx    px     lx    dx    Lx      Tx    ex    Sx
#>    <chr>  <dbl>   <dbl> <dbl>  <dbl> <dbl> <dbl>   <dbl> <dbl> <dbl>
#>  1 0      9.12  0.00908 0.991 100000   908 99364 7826402  78.3 0.997
#>  2 1      0.848 0.00085 0.999  99092    84 99042 7727038  78.0 0.999
#>  3 2      0.495 0.00049 1.00   99008    49 98983 7627996  77.0 1.00 
#>  4 3      0.334 0.00033 1.00   98959    33 98942 7529013  76.1 1.00 
#>  5 4      0.273 0.00027 1.00   98926    27 98912 7430070  75.1 1.00 
#>  6 5      0.233 0.00023 1.00   98899    23 98887 7331158  74.1 1.00 
#>  7 6      0.202 0.0002  1.00   98876    20 98866 7232270  73.1 1.00 
#>  8 7      0.192 0.00019 1.00   98856    19 98846 7133404  72.2 1.00 
#>  9 8      0.192 0.00019 1.00   98837    19 98827 7034558  71.2 1.00 
#> 10 9      0.182 0.00018 1.00   98818    18 98809 6935730  70.2 1.00 
#> # ℹ 95 more rows
…
218

218

1.20

NA

Life table as if it had been entered with a calculator, limiting the
decimal places according to the standard convention:

tb01c = DemBas_tablavida_completa_calculadora(mx)
tb01c
#> # A tibble: 105 × 10
#>    Edad  Mx1000      qx    px     lx    dx    Lx      Tx    ex    Sx
#>    <chr>  <dbl>   <dbl> <dbl>  <dbl> <dbl> <dbl>   <dbl> <dbl> <dbl>
#>  1 0       9.12 0.00908 0.991 100000   908 99364 7826362  78.3 0.997
#>  2 1       0.85 0.00085 0.999  99092    84 99042 7726998  78.0 0.999
#>  3 2       0.5  0.0005  1.00   99008    50 98983 7627956  77.0 1.00 
#>  4 3       0.33 0.00033 1.00   98958    33 98942 7528973  76.1 1.00 
#>  5 4       0.27 0.00027 1.00   98926    27 98913 7430031  75.1 1.00 
#>  6 5       0.23 0.00023 1.00   98899    23 98888 7331118  74.1 1.00 
#>  7 6       0.2  0.0002  1.00   98876    20 98866 7232230  73.1 1.00 
#>  8 7       0.19 0.00019 1.00   98856    19 98847 7133364  72.2 1.00 
#>  9 8       0.19 0.00019 1.00   98838    19 98829 7034517  71.2 1.00 
#> 10 9       0.18 0.00018 1.00   98819    18 98810 6935688  70.2 1.00 
#> # ℹ 95 more rows
…
